{
    "_defaultLanguage": "<%= _defaultLanguage0 %>",
    "_defaultDirection": "ltr",
    "_questionWeight": 1,
    "_accessibility": {
        "_isEnabled": true,
        "_shouldSupportLegacyBrowsers": true,
        "_isTextProcessorEnabled": true
    },
    "_drawer": {
        "_showEasing": "easeOutQuart",
        "_hideEasing": "easeInQuart",
        "_duration": 400
    },
    "_spoor": {
        "_isEnabled": true,
        "_tracking": {
            "_requireCourseCompleted": true,
            "_requireAssessmentPassed": true,
            "_shouldSubmitScore": false,
            "_shouldStoreResponses": false,
            "_shouldRecordInteractions": true
        },
        "_reporting": {
            "_comment": "<%= _comment1 %>",
            "_onTrackingCriteriaMet": "<%= _onTrackingCriteriaMet2 %>",
            "_onAssessmentFailure": "<%= _onAssessmentFailure3 %>"
        }
    },
    "_disableAnimationFor": [".ie8", ".iPhone.version-7\\.0"],
    "build": {}
}