[{
    "_id": "co-objandcntnts",
    "_parentId": "course",
    "_type": "page",
    "_classes": "",
    "title": "<%= title73 %>",
    "displayTitle": "",
    "pageBody": "",
    "body": "",
    "linkText": "<%= linkText74 %>",
    "_pageLevelProgress": {
        "_isEnabled": true
    }
},
{
    "_id": "co-elearning-02",
    "_parentId": "course",
    "_type": "page",
    "_classes": "",
    "title": "<%= title75 %>",
    "displayTitle": "",
    "pageBody": "",
    "body": "",
    "linkText": "<%= linkText76 %>",
    "_pageLevelProgress": {
        "_isEnabled": true
    }
},
{
    "_id": "co-quiz",
    "_parentId": "course",
    "_type": "page",
    "_classes": "",
    "title": "<%= title77 %>",
    "displayTitle": "",
    "pageBody": "",
    "body": "",
    "linkText": "<%= linkText78 %>",
    "_pageLevelProgress": {
        "_isEnabled": true
    }
}]