{
    "_id": "course",
    "_type": "course",
    "title": "<%= title4 %>",
    "displayTitle": "<%= displayTitle5 %>",
    "body": "",
    "_buttons": {
        "_submit": {
            "buttonText": "<%= buttonText6 %>",
            "ariaLabel": "<%= ariaLabel7 %>"
        },
        "_reset": {
            "buttonText": "<%= buttonText8 %>",
            "ariaLabel": "<%= ariaLabel9 %>"
        },
        "_showCorrectAnswer": {
            "buttonText": "<%= buttonText10 %>",
            "ariaLabel": "<%= ariaLabel11 %>"
        },
        "_hideCorrectAnswer": {
            "buttonText": "<%= buttonText12 %>",
            "ariaLabel": "<%= ariaLabel13 %>"
        },
        "_showFeedback": {
            "buttonText": "<%= buttonText14 %>",
            "ariaLabel": "<%= ariaLabel15 %>"
        },
        "remainingAttemptsText": "<%= remainingAttemptsText16 %>",
        "remainingAttemptText": "<%= remainingAttemptText17 %>",
        "disabledAriaLabel": "<%= disabledAriaLabel18 %>"
    },
    "_globals": {
        "_components": {
            "_accordion": {
                "ariaRegion": "<%= ariaRegion19 %>",
                "instruction": ""
            },
            "_blank": {
                "ariaRegion": "",
                "instruction": ""
            },
            "_gmcq": {
                "ariaRegion": "<%= ariaRegion20 %>",
                "instruction": ""
            },
            "_graphic": {
                "ariaRegion": "",
                "instruction": ""
            },
            "_hotGraphic": {
                "ariaRegion": "<%= ariaRegion21 %>",
                "instruction": ""
            },
            "_matching": {
                "ariaRegion": "<%= ariaRegion22 %>",
                "instruction": ""
            },
            "_mcq": {
                "ariaRegion": "<%= ariaRegion23 %>",
                "instruction": ""
            },
            "_media": {
                "ariaRegion": "<%= ariaRegion24 %>",
                "instruction": ""
            },
            "_narrative": {
                "ariaRegion": "<%= ariaRegion25 %>",
                "instruction": ""
            },
            "_slider": {
                "ariaRegion": "<%= ariaRegion26 %>",
                "instruction": ""
            },
            "_text": {
                "ariaRegion": "",
                "instruction": ""
            },
            "_textInput": {
                "ariaRegion": "<%= ariaRegion27 %>",
                "instruction": ""
            }
        },
        "_extensions": {
            "_pageLevelProgress": {
                "pageLevelProgress": "<%= pageLevelProgress28 %>",
                "pageLevelProgressEnd": "<%= pageLevelProgressEnd29 %>",
                "pageLevelProgressIndicatorBar": "<%= pageLevelProgressIndicatorBar30 %>",
                "pageLevelProgressMenuBar": "<%= pageLevelProgressMenuBar31 %>",
                "optionalContent": "<%= optionalContent32 %>"
            }
        },
        "_menu": {
            "_boxmenu": {
                "ariaRegion": "<%= ariaRegion33 %>",
                "menuItem": "<%= menuItem34 %>",
                "menuEnd": "<%= menuEnd35 %>"
            }
        },
        "_accessibility": {
            "_accessibilityToggleTextOn": "<%= _accessibilityToggleTextOn36 %>",
            "_accessibilityToggleTextOff": "<%= _accessibilityToggleTextOff37 %>",
            "_accessibilityInstructions": {
                "touch": "<%= touch38 %>",
                "notouch": "<%= notouch39 %>",
                "ipad": "<%= ipad40 %>"
            },
            "_ariaLabels": {
                "navigation": "<%= navigation41 %>",
                "menuLoaded": "<%= menuLoaded42 %>",
                "menu": "<%= menu43 %>",
                "page": "<%= page44 %>",
                "pageLoaded": "<%= pageLoaded45 %>",
                "pageEnd": "<%= pageEnd46 %>",
                "previous": "<%= previous47 %>",
                "navigationBack": "<%= navigationBack48 %>",
                "navigationDrawer": "<%= navigationDrawer49 %>",
                "close": "<%= close50 %>",
                "closeDrawer": "<%= closeDrawer51 %>",
                "closeResources": "<%= closeResources52 %>",
                "resourcesEnd": "<%= resourcesEnd53 %>",
                "drawerBack": "<%= drawerBack54 %>",
                "drawer": "<%= drawer55 %>",
                "closePopup": "<%= closePopup56 %>",
                "next": "<%= next57 %>",
                "done": "<%= done58 %>",
                "complete": "<%= complete59 %>",
                "incomplete": "<%= incomplete60 %>",
                "incorrect": "<%= incorrect61 %>",
                "correct": "<%= correct62 %>",
                "locked": "<%= locked63 %>",
                "accessibilityToggleButton": "<%= accessibilityToggleButton64 %>",
                "feedbackPopUp": "<%= feedbackPopUp65 %>",
                "menuBack": "<%= menuBack66 %>",
                "visited": "<%= visited67 %>"
            }
        }
    },
    "_latestTrackingId": 241,
    "_pageLevelProgress": {
        "_isEnabled": true,
        "_altText": "<%= _altText68 %>"
    },
    "_assessment": {
        "_postTotalScoreToLms": true,
        "_isPercentageBased": true,
        "_scoreToPass": 70
    },
    "_bookmarking": {
        "_isEnabled": true,
        "_level": "block",
        "title": "<%= title69 %>",
        "body": "<%= body70 %>",
        "_buttons": {
            "yes": "<%= yes71 %>",
            "no": "<%= no72 %>"
        }
    },
    "_navigation": {
        "_extensions": {
            "_close": {
                "_isEnabled": true,
                "_iconTypeClass": "icon-cross",
                "tooltip": "Close",
                "_showTooltip": false,
                "_layout": "left",
                "_promptIfIncomplete": null,
                "_promptIfComplete": null
            }
        }
    }
}