{
    "_defaultLanguage": "en",
    "_defaultDirection": "ltr",
    "_questionWeight": 1,
    "_accessibility": {
        "_isEnabled": true,
        "_shouldSupportLegacyBrowsers": true,
        "_isTextProcessorEnabled": true
    },
    "_drawer": {
        "_showEasing": "easeOutQuart",
        "_hideEasing": "easeInQuart",
        "_duration": 400
    },
    "_spoor": {
        "_isEnabled": true,
        "_tracking": {
            "_requireCourseCompleted": true,
            "_requireAssessmentPassed": false,
            "_shouldSubmitScore": true,
            "_shouldStoreResponses": true
        },
        "_reporting": {
            "_comment": "Aquí tus opciones son «completado», «superado», «no superado» e «incompleto»",
            "_onTrackingCriteriaMet": "completado",
            "_onAssessmentFailure": "incompleto"
        }
    },
    "_disableAnimationFor": [".ie8", ".iPhone.version-7\\.0"]
}